digraph G{

# Pre-Depends:             purple, bold
# Depends:                 black
# Recommends:              grey
# Suggests:                black, dotted
# Conflicts:               red

compound=true;
bgcolor=transparent

node [shape=box];

fabulous [style="filled,bold",fillcolor=lightgrey,color=blue,label=<<B>fabulous</B>>]

subgraph cluster_kernel {
        label = "Kernels"
        style = rounded
        color = black
        lapacke [color=red, style=bold,label=<<B>LAPACKE</B>>]
        cblas [color=red, style=bold,label=<<B>CBLAS</B>>]
        lapacke -> cblas
        }

fabulous -> cblas
fabulous -> lapacke

}