digraph G{

# Pre-Depends:             purple, bold
# Depends:                 black
# Recommends:              grey
# Suggests:                black, dotted
# Conflicts:               red

compound=true;
bgcolor=transparent

node [shape=box];

maphyspp [style="filled,bold",fillcolor=lightgrey,color=blue,label=<<B>MaPHyS++</B>>]

subgraph cluster_cppinterface {
        label = "C++ Interfaces"
        style = rounded
        color = black
        blaspp [color=purple, style=bold,label=<<B>blaspp</B>>]
        lapackpp [color=purple, style=bold,label=<<B>lapackpp</B>>]
        eigen [color=purple, style=bold,label=<<B>eigen</B>>]
        armadillo [color=purple, style=bold,label=<<B>armadillo</B>>]
        }

subgraph cluster_paradigm {
        label = "Paradigms"
        style = rounded
        color = black
        mpi [color=gold, style=bold,label=<<B>MPI</B>>]
        pthread [color=gold, style=bold,label=<<B>PThread</B>>]
        }

subgraph cluster_sparsesolver {
        label = "Sparse direct solvers"
        style = rounded
        color = black
        qrm [color=blue, style=bold,label=<<B>qr_mumps</B>>]
        mumps [color=blue, style=bold,label=<<B>MUMPS</B>>]
        pastix [color=blue, style=bold,label=<<B>PaStiX</B>>]
        mumps -> mpi [lhead=cluster_paradigm]
        pastix -> mpi [lhead=cluster_paradigm]
        }

subgraph cluster_eigensolver {
        label = "Eigen solvers"
        style = rounded
        color = black
        arpack [color=blue, style=bold,label=<<B>arpack-ng</B>>]
        }

subgraph cluster_iterativesolver {
        label = "Iterative solvers"
        style = rounded
        color = black
        fabulous [color=blue, style=bold,label=<<B>fabulous</B>>]
        }

maphyspp -> blaspp [lhead=cluster_cppinterface]
maphyspp -> mpi [lhead=cluster_paradigm]
maphyspp -> mumps [lhead=cluster_sparsesolver]
maphyspp -> arpack [lhead=cluster_eigensolver]
maphyspp -> fabulous [lhead=cluster_iterativesolver]

}