<?xml version="1.0" encoding="UTF-8" standalone="no"?>
<!DOCTYPE svg PUBLIC "-//W3C//DTD SVG 1.1//EN"
 "http://www.w3.org/Graphics/SVG/1.1/DTD/svg11.dtd">
<!-- Generated by graphviz version 2.43.0 (0)
 -->
<!-- Title: G Pages: 1 -->
<svg width="1240pt" height="348pt"
 viewBox="0.00 0.00 1239.51 348.00" xmlns="http://www.w3.org/2000/svg" xmlns:xlink="http://www.w3.org/1999/xlink">
<g id="graph0" class="graph" transform="scale(1 1) rotate(0) translate(4 344)">
<title>G</title>
<g id="clust1" class="cluster">
<title>cluster_paradigm</title>
<path fill="transparent" stroke="black" d="M236.51,-8C236.51,-8 464.51,-8 464.51,-8 470.51,-8 476.51,-14 476.51,-20 476.51,-20 476.51,-71 476.51,-71 476.51,-77 470.51,-83 464.51,-83 464.51,-83 236.51,-83 236.51,-83 230.51,-83 224.51,-77 224.51,-71 224.51,-71 224.51,-20 224.51,-20 224.51,-14 230.51,-8 236.51,-8"/>
<text text-anchor="middle" x="350.51" y="-67.8" font-family="Times,serif" font-size="14.00">Paradigms</text>
</g>
<g id="clust2" class="cluster">
<title>cluster_runtime</title>
<path fill="transparent" stroke="black" d="M362.51,-91C362.51,-91 524.51,-91 524.51,-91 530.51,-91 536.51,-97 536.51,-103 536.51,-103 536.51,-154 536.51,-154 536.51,-160 530.51,-166 524.51,-166 524.51,-166 362.51,-166 362.51,-166 356.51,-166 350.51,-160 350.51,-154 350.51,-154 350.51,-103 350.51,-103 350.51,-97 356.51,-91 362.51,-91"/>
<text text-anchor="middle" x="443.51" y="-150.8" font-family="Times,serif" font-size="14.00">Runtime Systems</text>
</g>
<g id="clust3" class="cluster">
<title>cluster_graph</title>
<path fill="transparent" stroke="black" d="M51.51,-91C51.51,-91 330.51,-91 330.51,-91 336.51,-91 342.51,-97 342.51,-103 342.51,-103 342.51,-154 342.51,-154 342.51,-160 336.51,-166 330.51,-166 330.51,-166 51.51,-166 51.51,-166 45.51,-166 39.51,-160 39.51,-154 39.51,-154 39.51,-103 39.51,-103 39.51,-97 45.51,-91 51.51,-91"/>
<text text-anchor="middle" x="191.01" y="-150.8" font-family="Times,serif" font-size="14.00">Graph Processing</text>
</g>
<g id="clust4" class="cluster">
<title>cluster_kernel</title>
<path fill="transparent" stroke="black" d="M692.51,-8C692.51,-8 871.51,-8 871.51,-8 877.51,-8 883.51,-14 883.51,-20 883.51,-20 883.51,-237 883.51,-237 883.51,-243 877.51,-249 871.51,-249 871.51,-249 692.51,-249 692.51,-249 686.51,-249 680.51,-243 680.51,-237 680.51,-237 680.51,-20 680.51,-20 680.51,-14 686.51,-8 692.51,-8"/>
<text text-anchor="middle" x="782.01" y="-233.8" font-family="Times,serif" font-size="14.00">CPU/GPU Kernels</text>
</g>
<g id="clust5" class="cluster">
<title>cluster_densesolver</title>
<path fill="transparent" stroke="black" d="M401.51,-174C401.51,-174 539.51,-174 539.51,-174 545.51,-174 551.51,-180 551.51,-186 551.51,-186 551.51,-237 551.51,-237 551.51,-243 545.51,-249 539.51,-249 539.51,-249 401.51,-249 401.51,-249 395.51,-249 389.51,-243 389.51,-237 389.51,-237 389.51,-186 389.51,-186 389.51,-180 395.51,-174 401.51,-174"/>
<text text-anchor="middle" x="470.51" y="-233.8" font-family="Times,serif" font-size="14.00">Dense linear solvers</text>
</g>
<g id="clust6" class="cluster">
<title>cluster_sparsedirectsolver</title>
<path fill="transparent" stroke="black" d="M191.51,-174C191.51,-174 369.51,-174 369.51,-174 375.51,-174 381.51,-180 381.51,-186 381.51,-186 381.51,-237 381.51,-237 381.51,-243 375.51,-249 369.51,-249 369.51,-249 191.51,-249 191.51,-249 185.51,-249 179.51,-243 179.51,-237 179.51,-237 179.51,-186 179.51,-186 179.51,-180 185.51,-174 191.51,-174"/>
<text text-anchor="middle" x="280.51" y="-233.8" font-family="Times,serif" font-size="14.00">Sparse direct solvers</text>
</g>
<g id="clust7" class="cluster">
<title>cluster_eigensolver</title>
<path fill="transparent" stroke="black" d="M571.51,-174C571.51,-174 660.51,-174 660.51,-174 666.51,-174 672.51,-180 672.51,-186 672.51,-186 672.51,-237 672.51,-237 672.51,-243 666.51,-249 660.51,-249 660.51,-249 571.51,-249 571.51,-249 565.51,-249 559.51,-243 559.51,-237 559.51,-237 559.51,-186 559.51,-186 559.51,-180 565.51,-174 571.51,-174"/>
<text text-anchor="middle" x="616.01" y="-233.8" font-family="Times,serif" font-size="14.00">Eigen solvers</text>
</g>
<g id="clust8" class="cluster">
<title>cluster_cppinterface</title>
<path fill="transparent" stroke="black" d="M1045.51,-174C1045.51,-174 1211.51,-174 1211.51,-174 1217.51,-174 1223.51,-180 1223.51,-186 1223.51,-186 1223.51,-237 1223.51,-237 1223.51,-243 1217.51,-249 1211.51,-249 1211.51,-249 1045.51,-249 1045.51,-249 1039.51,-249 1033.51,-243 1033.51,-237 1033.51,-237 1033.51,-186 1033.51,-186 1033.51,-180 1039.51,-174 1045.51,-174"/>
<text text-anchor="middle" x="1128.51" y="-233.8" font-family="Times,serif" font-size="14.00">C++ Interfaces</text>
</g>
<g id="clust9" class="cluster">
<title>cluster_iterativesolver</title>
<path fill="transparent" stroke="black" d="M903.51,-174C903.51,-174 1013.51,-174 1013.51,-174 1019.51,-174 1025.51,-180 1025.51,-186 1025.51,-186 1025.51,-237 1025.51,-237 1025.51,-243 1019.51,-249 1013.51,-249 1013.51,-249 903.51,-249 903.51,-249 897.51,-249 891.51,-243 891.51,-237 891.51,-237 891.51,-186 891.51,-186 891.51,-180 897.51,-174 903.51,-174"/>
<text text-anchor="middle" x="958.51" y="-233.8" font-family="Times,serif" font-size="14.00">Iterative solvers</text>
</g>
<g id="clust10" class="cluster">
<title>cluster_sparsehybridsolver</title>
<path fill="transparent" stroke="black" d="M555.51,-257C555.51,-257 704.51,-257 704.51,-257 710.51,-257 716.51,-263 716.51,-269 716.51,-269 716.51,-320 716.51,-320 716.51,-326 710.51,-332 704.51,-332 704.51,-332 555.51,-332 555.51,-332 549.51,-332 543.51,-326 543.51,-320 543.51,-320 543.51,-269 543.51,-269 543.51,-263 549.51,-257 555.51,-257"/>
<text text-anchor="middle" x="630.01" y="-316.8" font-family="Times,serif" font-size="14.00">Sparse hybrid solvers</text>
</g>
<!-- cuda -->
<g id="node1" class="node">
<title>cuda</title>
<polygon fill="none" stroke="#ffc125" stroke-width="2" points="366.51,-52 304.51,-52 304.51,-16 366.51,-16 366.51,-52"/>
<text text-anchor="start" x="312.51" y="-31.3" font-family="Times,serif" font-weight="bold" font-size="14.00">CUDA</text>
</g>
<!-- mpi -->
<g id="node2" class="node">
<title>mpi</title>
<polygon fill="none" stroke="#ffc125" stroke-width="2" points="286.51,-52 232.51,-52 232.51,-16 286.51,-16 286.51,-52"/>
<text text-anchor="start" x="242.51" y="-31.3" font-family="Times,serif" font-weight="bold" font-size="14.00">MPI</text>
</g>
<!-- pthread -->
<g id="node3" class="node">
<title>pthread</title>
<polygon fill="none" stroke="#ffc125" stroke-width="2" points="468.01,-52 385.01,-52 385.01,-16 468.01,-16 468.01,-52"/>
<text text-anchor="start" x="393.01" y="-31.3" font-family="Times,serif" font-weight="bold" font-size="14.00">PThread</text>
</g>
<!-- starpu -->
<g id="node4" class="node">
<title>starpu</title>
<polygon fill="none" stroke="#7fff00" stroke-width="2" points="528.51,-135 456.51,-135 456.51,-99 528.51,-99 528.51,-135"/>
<text text-anchor="start" x="464.51" y="-114.3" font-family="Times,serif" font-weight="bold" font-size="14.00">StarPU</text>
</g>
<!-- starpu&#45;&gt;pthread -->
<g id="edge1" class="edge">
<title>starpu&#45;&gt;pthread</title>
<path fill="none" stroke="black" d="M478.52,-98.82C476.51,-96.36 474.36,-93.73 472.13,-90.98"/>
<polygon fill="black" stroke="black" points="474.65,-88.54 465.62,-83 469.23,-92.96 474.65,-88.54"/>
</g>
<!-- parsec -->
<g id="node5" class="node">
<title>parsec</title>
<polygon fill="none" stroke="#7fff00" stroke-width="2" points="438.51,-135 358.51,-135 358.51,-99 438.51,-99 438.51,-135"/>
<text text-anchor="start" x="366.51" y="-114.3" font-family="Times,serif" font-weight="bold" font-size="14.00">PaRSEC</text>
</g>
<!-- parsec&#45;&gt;pthread -->
<g id="edge2" class="edge">
<title>parsec&#45;&gt;pthread</title>
<path fill="none" stroke="black" d="M404.45,-98.82C405.12,-96.88 405.83,-94.84 406.56,-92.71"/>
<polygon fill="black" stroke="black" points="409.96,-93.59 409.92,-83 403.35,-91.3 409.96,-93.59"/>
</g>
<!-- ptscotch -->
<g id="node6" class="node">
<title>ptscotch</title>
<polygon fill="none" stroke="#c1ffc1" stroke-width="2" points="335.01,-135 242.01,-135 242.01,-99 335.01,-99 335.01,-135"/>
<text text-anchor="start" x="250.01" y="-114.3" font-family="Times,serif" font-weight="bold" font-size="14.00">PT&#45;Scotch</text>
</g>
<!-- ptscotch&#45;&gt;mpi -->
<g id="edge3" class="edge">
<title>ptscotch&#45;&gt;mpi</title>
<path fill="none" stroke="black" d="M282.36,-98.82C278.52,-88.08 273.48,-74.03 269.12,-61.84"/>
<polygon fill="black" stroke="black" points="272.32,-60.39 265.65,-52.15 265.73,-62.75 272.32,-60.39"/>
</g>
<!-- metis -->
<g id="node7" class="node">
<title>metis</title>
<polygon fill="none" stroke="#c1ffc1" stroke-width="2" points="223.51,-135 153.51,-135 153.51,-99 223.51,-99 223.51,-135"/>
<text text-anchor="start" x="161.51" y="-114.3" font-family="Times,serif" font-weight="bold" font-size="14.00">METIS</text>
</g>
<!-- colamd -->
<g id="node8" class="node">
<title>colamd</title>
<polygon fill="none" stroke="#c1ffc1" stroke-width="2" points="135.51,-135 47.51,-135 47.51,-99 135.51,-99 135.51,-135"/>
<text text-anchor="start" x="55.51" y="-114.3" font-family="Times,serif" font-weight="bold" font-size="14.00">COLAMD</text>
</g>
<!-- cublas -->
<g id="node9" class="node">
<title>cublas</title>
<polygon fill="none" stroke="#ff1493" stroke-width="2" points="766.01,-218 689.01,-218 689.01,-182 766.01,-182 766.01,-218"/>
<text text-anchor="start" x="697.01" y="-197.3" font-family="Times,serif" font-weight="bold" font-size="14.00">cuBLAS</text>
</g>
<!-- cublas&#45;&gt;cuda -->
<g id="edge4" class="edge">
<title>cublas&#45;&gt;cuda</title>
<path fill="none" stroke="black" d="M708.86,-181.93C679.87,-156.62 621.1,-110.09 561.51,-91 522.32,-78.45 413.5,-101.03 376.51,-83 366.36,-78.05 357.74,-69.31 351.06,-60.63"/>
<polygon fill="black" stroke="black" points="353.9,-58.58 345.26,-52.45 348.19,-62.63 353.9,-58.58"/>
</g>
<!-- lapacke -->
<g id="node10" class="node">
<title>lapacke</title>
<polygon fill="none" stroke="#ff1493" stroke-width="2" points="875.01,-218 784.01,-218 784.01,-182 875.01,-182 875.01,-218"/>
<text text-anchor="start" x="792.01" y="-197.3" font-family="Times,serif" font-weight="bold" font-size="14.00">LAPACKE</text>
</g>
<!-- lapack -->
<g id="node11" class="node">
<title>lapack</title>
<polygon fill="none" stroke="#ff1493" stroke-width="2" points="869.51,-135 789.51,-135 789.51,-99 869.51,-99 869.51,-135"/>
<text text-anchor="start" x="797.51" y="-114.3" font-family="Times,serif" font-weight="bold" font-size="14.00">LAPACK</text>
</g>
<!-- lapacke&#45;&gt;lapack -->
<g id="edge5" class="edge">
<title>lapacke&#45;&gt;lapack</title>
<path fill="none" stroke="black" d="M829.51,-181.82C829.51,-171.19 829.51,-157.31 829.51,-145.2"/>
<polygon fill="black" stroke="black" points="833.01,-145.15 829.51,-135.15 826.01,-145.15 833.01,-145.15"/>
</g>
<!-- cblas -->
<g id="node12" class="node">
<title>cblas</title>
<polygon fill="none" stroke="#ff1493" stroke-width="2" points="770.51,-135 700.51,-135 700.51,-99 770.51,-99 770.51,-135"/>
<text text-anchor="start" x="708.51" y="-114.3" font-family="Times,serif" font-weight="bold" font-size="14.00">CBLAS</text>
</g>
<!-- lapacke&#45;&gt;cblas -->
<g id="edge6" class="edge">
<title>lapacke&#45;&gt;cblas</title>
<path fill="none" stroke="black" d="M801.76,-181.89C794.6,-177.06 787.07,-171.58 780.51,-166 772.29,-159 764.01,-150.63 756.83,-142.85"/>
<polygon fill="black" stroke="black" points="759.36,-140.43 750.06,-135.35 754.16,-145.12 759.36,-140.43"/>
</g>
<!-- blas -->
<g id="node13" class="node">
<title>blas</title>
<polygon fill="none" stroke="#ff1493" stroke-width="2" points="765.01,-52 706.01,-52 706.01,-16 765.01,-16 765.01,-52"/>
<text text-anchor="start" x="714.01" y="-31.3" font-family="Times,serif" font-weight="bold" font-size="14.00">BLAS</text>
</g>
<!-- lapack&#45;&gt;blas -->
<g id="edge8" class="edge">
<title>lapack&#45;&gt;blas</title>
<path fill="none" stroke="black" d="M809.58,-98.82C796.12,-87.22 778.17,-71.75 763.31,-58.95"/>
<polygon fill="black" stroke="black" points="765.28,-56.03 755.42,-52.15 760.71,-61.33 765.28,-56.03"/>
</g>
<!-- cblas&#45;&gt;blas -->
<g id="edge7" class="edge">
<title>cblas&#45;&gt;blas</title>
<path fill="none" stroke="black" d="M735.51,-98.82C735.51,-88.19 735.51,-74.31 735.51,-62.2"/>
<polygon fill="black" stroke="black" points="739.01,-62.15 735.51,-52.15 732.01,-62.15 739.01,-62.15"/>
</g>
<!-- chameleon -->
<g id="node14" class="node">
<title>chameleon</title>
<polygon fill="none" stroke="deepskyblue" stroke-width="2" points="543.01,-218 438.01,-218 438.01,-182 543.01,-182 543.01,-218"/>
<text text-anchor="start" x="446.01" y="-197.3" font-family="Times,serif" font-weight="bold" font-size="14.00">Chameleon</text>
</g>
<!-- chameleon&#45;&gt;mpi -->
<g id="edge9" class="edge">
<title>chameleon&#45;&gt;mpi</title>
<path fill="none" stroke="black" d="M526.38,-181.82C532.06,-177.48 537.16,-172.23 540.51,-166 556.31,-136.65 563.69,-114.95 540.51,-91 523.2,-73.11 353.02,-91.75 305.45,-85.48"/>
<polygon fill="black" stroke="black" points="306.06,-82.03 295.51,-83 304.37,-88.82 306.06,-82.03"/>
</g>
<!-- chameleon&#45;&gt;starpu -->
<g id="edge11" class="edge">
<title>chameleon&#45;&gt;starpu</title>
<path fill="none" stroke="black" d="M490.94,-181.82C490.98,-180.03 491.03,-178.15 491.08,-176.2"/>
<polygon fill="black" stroke="black" points="494.58,-176.08 491.33,-166 487.58,-175.91 494.58,-176.08"/>
</g>
<!-- chameleon&#45;&gt;cblas -->
<g id="edge10" class="edge">
<title>chameleon&#45;&gt;cblas</title>
<path fill="none" stroke="black" d="M530.98,-181.88C539.01,-178.93 547.45,-176.13 555.51,-174 578.54,-167.91 585.46,-172.02 608.51,-166 629.23,-160.59 651.23,-152.97 671,-145.4"/>
<polygon fill="black" stroke="black" points="672.47,-148.59 680.51,-141.69 669.93,-142.06 672.47,-148.59"/>
</g>
<!-- qrm -->
<g id="node15" class="node">
<title>qrm</title>
<polygon fill="none" stroke="aquamarine" stroke-width="2" points="287.01,-218 188.01,-218 188.01,-182 287.01,-182 287.01,-218"/>
<text text-anchor="start" x="196.01" y="-197.3" font-family="Times,serif" font-weight="bold" font-size="14.00">qr_mumps</text>
</g>
<!-- qrm&#45;&gt;cuda -->
<g id="edge12" class="edge">
<title>qrm&#45;&gt;cuda</title>
<path fill="none" stroke="black" d="M187.73,-197.99C134.36,-195.72 54.67,-188.54 35.51,-166 13.93,-140.6 12.31,-114.93 35.51,-91 44.57,-81.66 237.57,-87.79 285.41,-84.48"/>
<polygon fill="black" stroke="black" points="286.12,-87.91 295.51,-83 285.11,-80.98 286.12,-87.91"/>
</g>
<!-- qrm&#45;&gt;starpu -->
<g id="edge15" class="edge">
<title>qrm&#45;&gt;starpu</title>
<path fill="none" stroke="black" d="M272.1,-181.99C279.95,-178.8 288.38,-175.88 296.51,-174 326.31,-167.12 401.71,-177.87 437.99,-169.18"/>
<polygon fill="black" stroke="black" points="439.14,-172.49 447.51,-166 436.92,-165.85 439.14,-172.49"/>
</g>
<!-- qrm&#45;&gt;ptscotch -->
<g id="edge14" class="edge">
<title>qrm&#45;&gt;ptscotch</title>
<path fill="none" stroke="black" d="M248.33,-181.82C249.74,-179.59 251.24,-177.2 252.8,-174.73"/>
<polygon fill="black" stroke="black" points="255.93,-176.32 258.29,-166 250,-172.59 255.93,-176.32"/>
</g>
<!-- qrm&#45;&gt;blas -->
<g id="edge13" class="edge">
<title>qrm&#45;&gt;blas</title>
<path fill="none" stroke="black" d="M271.75,-182C279.7,-178.76 288.26,-175.82 296.51,-174 349.49,-162.33 489.21,-183.63 540.51,-166 594.06,-147.59 596.4,-122.42 643.51,-91 652.55,-84.97 662.23,-78.79 671.79,-72.85"/>
<polygon fill="black" stroke="black" points="673.84,-75.69 680.51,-67.46 670.17,-69.74 673.84,-75.69"/>
</g>
<!-- pastix -->
<g id="node16" class="node">
<title>pastix</title>
<polygon fill="none" stroke="aquamarine" stroke-width="2" points="373.51,-218 305.51,-218 305.51,-182 373.51,-182 373.51,-218"/>
<text text-anchor="start" x="313.51" y="-197.3" font-family="Times,serif" font-weight="bold" font-size="14.00">PaStiX</text>
</g>
<!-- pastix&#45;&gt;mpi -->
<g id="edge16" class="edge">
<title>pastix&#45;&gt;mpi</title>
<path fill="none" stroke="black" d="M314.99,-181.98C309.18,-178.74 302.82,-175.81 296.51,-174 282.57,-170.01 45.61,-176.41 35.51,-166 12.31,-142.07 15,-117.27 35.51,-91 58.27,-61.85 164.59,-45.63 222.19,-38.84"/>
<polygon fill="black" stroke="black" points="217.13,-45.28 224.51,-37.68 214,-39.02 217.13,-45.28"/>
</g>
<!-- pastix&#45;&gt;starpu -->
<g id="edge19" class="edge">
<title>pastix&#45;&gt;starpu</title>
<path fill="none" stroke="black" d="M366.99,-181.94C372.92,-178.87 379.29,-176.02 385.51,-174 408.33,-166.61 419.52,-175.45 438.07,-169.86"/>
<polygon fill="black" stroke="black" points="439.58,-173.03 447.51,-166 436.93,-166.55 439.58,-173.03"/>
</g>
<!-- pastix&#45;&gt;ptscotch -->
<g id="edge18" class="edge">
<title>pastix&#45;&gt;ptscotch</title>
<path fill="none" stroke="black" d="M328.7,-181.82C327.29,-179.59 325.79,-177.2 324.23,-174.73"/>
<polygon fill="black" stroke="black" points="327.02,-172.59 318.73,-166 321.1,-176.32 327.02,-172.59"/>
</g>
<!-- pastix&#45;&gt;cblas -->
<g id="edge17" class="edge">
<title>pastix&#45;&gt;cblas</title>
<path fill="none" stroke="black" d="M366.38,-181.78C372.45,-178.64 379.03,-175.8 385.51,-174 425.17,-163 529.91,-172.68 570.51,-166 604.24,-160.45 640.84,-150.25 670.97,-140.68"/>
<polygon fill="black" stroke="black" points="672.07,-144 680.52,-137.6 669.92,-137.34 672.07,-144"/>
</g>
<!-- arpack -->
<g id="node17" class="node">
<title>arpack</title>
<polygon fill="none" stroke="#caff70" stroke-width="2" points="664.51,-218 594.51,-218 594.51,-182 664.51,-182 664.51,-218"/>
<text text-anchor="start" x="602.51" y="-197.3" font-family="Times,serif" font-weight="bold" font-size="14.00">arpack</text>
</g>
<!-- arpack&#45;&gt;blas -->
<g id="edge20" class="edge">
<title>arpack&#45;&gt;blas</title>
<path fill="none" stroke="black" d="M638.44,-181.7C646.86,-165.71 660.37,-140.81 675.22,-116.49"/>
<polygon fill="black" stroke="black" points="678.23,-118.27 680.52,-107.93 672.28,-114.59 678.23,-118.27"/>
</g>
<!-- blaspp -->
<g id="node18" class="node">
<title>blaspp</title>
<polygon fill="none" stroke="#ffd39b" stroke-width="2" points="1215.51,-218 1147.51,-218 1147.51,-182 1215.51,-182 1215.51,-218"/>
<text text-anchor="start" x="1155.51" y="-197.3" font-family="Times,serif" font-weight="bold" font-size="14.00">blaspp</text>
</g>
<!-- blaspp&#45;&gt;blas -->
<g id="edge21" class="edge">
<title>blaspp&#45;&gt;blas</title>
<path fill="none" stroke="black" d="M1153.71,-181.79C1148.74,-179.01 1143.54,-176.3 1138.51,-174 1009.65,-115 848.08,-66.49 774.84,-45.79"/>
<polygon fill="black" stroke="black" points="775.67,-42.39 765.1,-43.06 773.78,-49.13 775.67,-42.39"/>
</g>
<!-- lapackpp -->
<g id="node19" class="node">
<title>lapackpp</title>
<polygon fill="none" stroke="#ffd39b" stroke-width="2" points="1129.01,-218 1042.01,-218 1042.01,-182 1129.01,-182 1129.01,-218"/>
<text text-anchor="start" x="1050.01" y="-197.3" font-family="Times,serif" font-weight="bold" font-size="14.00">lapackpp</text>
</g>
<!-- lapackpp&#45;&gt;lapack -->
<g id="edge22" class="edge">
<title>lapackpp&#45;&gt;lapack</title>
<path fill="none" stroke="black" d="M1049.38,-181.94C1042.84,-179.12 1036.02,-176.35 1029.51,-174 979.22,-155.85 920.1,-139.94 879.24,-129.76"/>
<polygon fill="black" stroke="black" points="880.07,-126.36 869.52,-127.36 878.39,-133.15 880.07,-126.36"/>
</g>
<!-- fabulous -->
<g id="node20" class="node">
<title>fabulous</title>
<polygon fill="none" stroke="coral" stroke-width="2" points="985.01,-218 900.01,-218 900.01,-182 985.01,-182 985.01,-218"/>
<text text-anchor="start" x="908.01" y="-197.3" font-family="Times,serif" font-weight="bold" font-size="14.00">fabulous</text>
</g>
<!-- fabulous&#45;&gt;cblas -->
<g id="edge23" class="edge">
<title>fabulous&#45;&gt;cblas</title>
<path fill="none" stroke="black" d="M910.04,-181.98C905.06,-179.81 899.84,-177.76 893.31,-175.8"/>
<polygon fill="black" stroke="black" points="894.08,-172.38 883.51,-173.17 892.26,-179.14 894.08,-172.38"/>
</g>
<!-- maphyspp -->
<g id="node21" class="node">
<title>maphyspp</title>
<polygon fill="none" stroke="#98f5ff" stroke-width="2" points="683.01,-301 576.01,-301 576.01,-265 683.01,-265 683.01,-301"/>
<text text-anchor="start" x="584.01" y="-280.3" font-family="Times,serif" font-weight="bold" font-size="14.00">MaPHyS++</text>
</g>
<!-- maphyspp&#45;&gt;mpi -->
<g id="edge28" class="edge">
<title>maphyspp&#45;&gt;mpi</title>
<path fill="none" stroke="black" d="M575.91,-280.79C472.55,-278.03 249.4,-269.79 175.51,-249 98.02,-227.2 56.41,-234.74 14.51,-166 -2.84,-137.54 -6.27,-117.06 14.51,-91 40.09,-58.91 160.37,-43.74 222.36,-37.96"/>
<polygon fill="black" stroke="black" points="216.67,-44.17 224.51,-37.04 213.94,-37.73 216.67,-44.17"/>
</g>
<!-- maphyspp&#45;&gt;pastix -->
<g id="edge26" class="edge">
<title>maphyspp&#45;&gt;pastix</title>
<path fill="none" stroke="black" d="M575.83,-278.87C518.99,-274.89 432.3,-266.79 390.81,-250.87"/>
<polygon fill="black" stroke="black" points="392.07,-247.61 381.51,-246.78 389.25,-254.01 392.07,-247.61"/>
</g>
<!-- maphyspp&#45;&gt;arpack -->
<g id="edge27" class="edge">
<title>maphyspp&#45;&gt;arpack</title>
<path fill="none" stroke="black" d="M629.51,-264.82C629.51,-263.03 629.51,-261.15 629.51,-259.2"/>
<polygon fill="black" stroke="black" points="633.01,-259 629.51,-249 626.01,-259 633.01,-259"/>
</g>
<!-- maphyspp&#45;&gt;blaspp -->
<g id="edge24" class="edge">
<title>maphyspp&#45;&gt;blaspp</title>
<path fill="none" stroke="black" d="M683.44,-280.8C798.9,-277.93 1064.72,-269.57 1128.95,-252.32"/>
<polygon fill="black" stroke="black" points="1130.22,-255.59 1138.51,-249 1127.92,-248.98 1130.22,-255.59"/>
</g>
<!-- maphyspp&#45;&gt;fabulous -->
<g id="edge25" class="edge">
<title>maphyspp&#45;&gt;fabulous</title>
<path fill="none" stroke="black" d="M683.18,-278.81C743.13,-274.67 837.22,-266.26 881.99,-250.8"/>
<polygon fill="black" stroke="black" points="883.49,-253.98 891.51,-247.06 880.93,-247.46 883.49,-253.98"/>
</g>
</g>
</svg>
