digraph G{

compound=true;
bgcolor=transparent

node [shape=box];

subgraph cluster_runtime {
        label = "Runtime System"
        style = rounded
        color = black
        starpu [color=chartreuse1,style=bold,label=<<B>StarPU</B>>]
        }

subgraph cluster_graph {
        label = "Graph Processing"
        style = rounded
        color = black
        scotch [color=darkseagreen1,style=bold,label=<<B>Scotch</B>>]
        }

subgraph cluster_densesolver {
        label = "Dense linear solver"
        style = rounded
        color = black
        chameleon [color=cadetblue1, style=bold,label=<<B>Chameleon</B>>]
        chameleon -> starpu [lhead=cluster_runtime]
        }

subgraph cluster_sparsedirectsolver {
        label = "Sparse direct solvers"
        style = rounded
        color = black
        qrm [color=aquamarine, style=bold,label=<<B>qr_mumps</B>>]
        qrm -> starpu [lhead=cluster_runtime]
        qrm -> scotch [lhead=cluster_graph]
        pastix [color=aquamarine, style=bold,label=<<B>PaStiX</B>>]
        pastix -> starpu [lhead=cluster_runtime]
        pastix -> scotch [lhead=cluster_graph]
        }

subgraph cluster_iterativesolver {
        label = "Iterative solver"
        style = rounded
        color = black
        fabulous [color=deepskyblue, style=bold,label=<<B>Fabulous</B>>]
        fabulous -> chameleon [lhead=cluster_densesolver]
        }

subgraph cluster_sparsehybridsolver {
        label = "Sparse hybrid solver"
        style = rounded
        color = black
        maphyspp [color=hotpink1,style=bold,label=<<B>MaPHyS++</B>>]
        maphyspp -> fabulous [lhead=cluster_iterativesolver]
        maphyspp -> pastix [lhead=cluster_sparsedirectsolver]
        maphyspp -> qrm [lhead=cluster_sparsedirectsolver]
        }

}